\relax 
\providecommand\hyper@newdestlabel[2]{}
\providecommand\HyperFirstAtBeginDocument{\AtBeginDocument}
\HyperFirstAtBeginDocument{\ifx\hyper@anchor\@undefined
\global\let\oldcontentsline\contentsline
\gdef\contentsline#1#2#3#4{\oldcontentsline{#1}{#2}{#3}}
\global\let\oldnewlabel\newlabel
\gdef\newlabel#1#2{\newlabelxx{#1}#2}
\gdef\newlabelxx#1#2#3#4#5#6{\oldnewlabel{#1}{{#2}{#3}}}
\AtEndDocument{\ifx\hyper@anchor\@undefined
\let\contentsline\oldcontentsline
\let\newlabel\oldnewlabel
\fi}
\fi}
\global\let\hyper@last\relax 
\gdef\HyperFirstAtBeginDocument#1{#1}
\providecommand\HyField@AuxAddToFields[1]{}
\providecommand\HyField@AuxAddToCoFields[2]{}
\@writefile{toc}{\contentsline {section}{\numberline {0.1}Introduction}{2}{section.0.1}\protected@file@percent }
\@writefile{toc}{\contentsline {section}{\numberline {0.2}Problem Statement}{2}{section.0.2}\protected@file@percent }
\@writefile{toc}{\contentsline {section}{\numberline {0.3}Teaching GenAI the Game}{2}{section.0.3}\protected@file@percent }
\@writefile{toc}{\contentsline {subsection}{\numberline {0.3.1}Rule Comprehension}{2}{subsection.0.3.1}\protected@file@percent }
\@writefile{toc}{\contentsline {subsection}{\numberline {0.3.2}Sample Gameplay}{3}{subsection.0.3.2}\protected@file@percent }
\@writefile{toc}{\contentsline {section}{\numberline {0.4}Iterating upon the Strategy}{3}{section.0.4}\protected@file@percent }
\@writefile{toc}{\contentsline {subsection}{\numberline {0.4.1}Strategy Analysis}{3}{subsection.0.4.1}\protected@file@percent }
\@writefile{toc}{\contentsline {subsection}{\numberline {0.4.2}Feedback and Improvement Suggestions}{3}{subsection.0.4.2}\protected@file@percent }
\@writefile{toc}{\contentsline {section}{\numberline {0.5}Code Development and Refinement}{4}{section.0.5}\protected@file@percent }
\@writefile{toc}{\contentsline {section}{\numberline {0.6}Conclusion of the Study}{4}{section.0.6}\protected@file@percent }
\@writefile{toc}{\contentsline {section}{\numberline {0.7}Additional Resources}{5}{section.0.7}\protected@file@percent }
\gdef \@abspage@last{6}
