﻿Assignment,Link
Assignment_1,https://fuschia-switch-326.notion.site/Assignment-1-2ae59722fdd64978b8d2af07eaa7172c?pvs=4
Assignment_2,https://fuschia-switch-326.notion.site/Yahtzee-game-6a4918d44b8a4d5181ba46287734a9b5?pvs=4
Assignment_3,https://fuschia-switch-326.notion.site/Yahtzee_testing_strategies-464331f3e5174c8fb9b7484359529c15?pvs=4
Assignment_4,https://fuschia-switch-326.notion.site/Assignment-4-1f7590a384324e3fbf9134da8ff9bcf5?pvs=4
